{
  "data": [
    {
      "groupid": "pay",
      "transaction_code": 71,
      "amount": 2000,
      "customer_account_number": 12345,
      "account": 2233112399,
      "transaction_date": "010119",
      "bankname": "BANCO DE GUATEMALA",
      "employee_tax_id": "5435-464.56",
      "employee_id": "00000000000000000001",
      "employee_name": "John Rodriguez",
      "employee_address": "calle prueba 1",
      "update_type": 2
    },

    {
      "groupid": "pay",
      "transaction_code": 71,
      "amount": 3000,
      "customer_account_number": 12345,
      "account": 2232999999,
      "transaction_date": "010119",
      "bankname": "BANCO DE GUATEMALA",
      "employee_tax_id": 1111,
      "employee_id": "00000000000000000002",
      "employee_name": "Maria José",
      "employee_address": "calle prueba 2",
      "update_type": 2
    },
    {
      "groupid": "voi",
      "invoice_detail": "detalhes do invoice do pay 1"
    },
    {
      "groupid": "pay",
      "transaction_code": 72,
      "amount": 4000,
      "customer_account_number": 12345,
      "account": 2211199999,
      "transaction_date": "010119",
      "bankname": "CREDITO HIPOTECARIO NACIONAL",
      "employee_tax_id": 2222,
      "employee_id": "00000000000000000003",
      "employee_name": "Fernando Hernandez",
      "employee_address": "calle prueba 3",
      "update_type": 2
    },
    {
      "groupid": "voi",
      "invoice_detail": "detalhes do invoice1 do pay 2"
    },
    {
      "groupid": "voi",
      "invoice_detail": "detalhes do invoice2 do pay 2"
    },
    {
      "groupid": "voi",
      "invoice_detail": "detalhes do invoice3 do pay 2"
    },
    {
      "groupid": "pay",
      "transaction_code": 71,
      "amount": 4000,
      "customer_account_number": 12345,
      "account": 4444556699,
      "transaction_date": "010119",
      "bankname": "BANCO DE GUATEMALA",
      "employee_tax_id": 3333,
      "employee_id": "00000000000000000004",
      "employee_name": "José Gomez",
      "employee_address": "calle prueba 4",
      "update_type": 2
    },
    {
      "groupid": "pay",
      "transaction_code": 72,
      "amount": 60000,
      "customer_account_number": 12345,
      "account": 4443399999,
      "transaction_date": "010119",
      "bankname": "CREDITO HIPOTECARIO NACIONAL",
      "employee_tax_id": 4444,
      "employee_id": "00000000000000000005",
      "employee_name": "Rosário Mendez",
      "employee_address": "calle prueba 5",
      "update_type": 2
    },
    {
      "groupid": "voi",
      "invoice_detail": "detalhes do invoice1 do pay 3"
    },
    {
      "groupid": "voi",
      "invoice_detail": "detalhes do invoice2 do pay 3"
    },
    {
      "groupid": "voi",
      "invoice_detail": "teste"
    },
    {
      "groupid": "voi",
      "invoice_detail": "detalhes do invoice4 do pay 3"
    },
    {
      "groupid": "voi",
      "invoice_detail": "detalhes do invoice5 do pay 3"
    },
    {
      "groupid": "voi",
      "invoice_detail": "detalhes do invoice6 do pay 3"
    },
    {
      "groupid": "voi",
      "invoice_detail": "detalhes do invoice7 do pay 3"
    },
    {
      "groupid": "voi",
      "invoice_detail": "detalhes do invoice8 do pay 3"
    },
    {
      "groupid": "voi",
      "invoice_detail": "detalhes do invoice9 do pay 3"
    },
    {
      "groupid": "voi",
      "invoice_detail": "detalhes do invoice10 do pay 3"
    },
    {
      "groupid": "pay",
      "customer_account_number": 12345,
      "account": 6666999999,
      "bankname": "BCO LOS TRABAJADORES",
      "employee_id": "00000000000000000006",
      "employee_name": "José Cueva"
    },
    {
      "groupid": "voi",
      "invoice_detail": "detalhes do invoice1 do pay 4"
    },
    {
      "groupid": "voi",
      "invoice_detail": "detalhes do invoice2 do pay 4"
    }
  ]
}
